{
    pot: true,
    paddingX: 0,
    paddingY: 0,
    bleed: true,
    edgePadding: yes,
    duplicatePadding: false,
    rotation: false,
    minWidth: 16,
    minHeight: 16,
    maxWidth: 1024,
    maxHeight: 1024,
    square: false,
    stripWhitespaceX: false,
    stripWhitespaceY: false,
    alphaThreshold: 0,
    filterMin: MipMapNearestLinear,
    filterMag: Nearest,
    wrapX: ClampToEdge,
    wrapY: ClampToEdge,
    format: RGBA8888,
    alias: true,
    outputFormat: png,
    jpegQuality: 0.9,
    ignoreBlankImages: true,
    fast: false,
    debug: false,
    combineSubdirectories: false,
    flattenPaths: false,
    premultiplyAlpha: false,
    useIndexes: true,
    limitMemory: true,
    grid: false,
    scale: [ 1 ],
    scaleSuffix: [ "" ]
}
